<!DOCTYPE html>
<html lang="en">
<head>
    <meta charset="UTF-8">
    <meta name="viewport" content="width=device-width, initial-scale=1.0">
    <title>Document</title>
    <link rel="stylesheet" href="main.css">
</head>
<body>
    <div class="proxima_logo">
        <img src="proxima.png" alt="proxima_logo">
    </div>
    <div class="uacademy_logo">
        <img src="uacademy.webp" alt="uacademy_logo">
    </div>
    <div class="text">
        <h1>Welcome to Exam</h1>
    </div>
</body>
</html>
